<svg xmlns="http://www.w3.org/2000/svg" width="267.566" height="341.898" viewBox="0 0 267.566 341.898">
  <g id="Group_1" data-name="Group 1" transform="translate(-1142.886 -327)">
    <g id="amanj_logo_type_-2" data-name="amanj logo type -2" transform="translate(591.768 326.87)">
      <path id="Path_1" data-name="Path 1" d="M646,8.89c3.69-2.91,7.37-5.85,11.06-8.76,2.07,12.78,7.32,25.59,4.68,38.69-2.92,11.42-14,18.76-24.9,21.48-.85-12.28,3.97-23.82,7.06-35.45-6.01,9.2-9.7,19.66-12.22,30.3-4.84-8.19-7.53-18.76-3.25-27.74C631.93,19.35,639.2,14.02,646,8.89Z" fill="#fff"/>
      <path id="Path_2" data-name="Path 2" d="M585.22,52.26c2.46-8.06,4.23-16.28,6.21-24.45,10.78,12.78,26.12,21.3,34.88,35.83a32.681,32.681,0,0,1,2.78,28.32c-1.99,5.02-3.66,10.36-7.22,14.54-3.98-15.32-6.24-31.85-15.74-44.98,2.31,8.78,5.49,17.36,6.98,26.35a100.02,100.02,0,0,1,1.37,25.21c-6.06-1.39-11.35-4.8-16.48-8.16-8.25-5.49-14.8-14.13-16.35-24.07C580.14,71.18,582.68,61.52,585.22,52.26Z" fill="#fff"/>
      <path id="Path_3" data-name="Path 3" d="M668.18,56.19c14.79-5.34,30.7-2.42,45.82-.39,7.22,1.18,14.55.76,21.82.59-4.39,5.8-9.24,11.29-12.9,17.61-7.75,12.5-14.63,26.33-26.87,35.12-9.76,7.16-22.58,8.72-34.27,6.61-7.04-.87-13.37-4.23-20.13-6.14-6.63,8.06-12.12,17.18-14.59,27.4a66.271,66.271,0,0,0,5.42,46.45c7.3,14.26,20.39,25.25,35.34,30.77,26.83,9.9,59.47-1.6,74.78-25.6a68.445,68.445,0,0,0,9.54-50.66,25.889,25.889,0,0,1,2.81,9.98c4.15,29.17-11.92,60.67-38.98,72.98A70.5,70.5,0,0,1,630.87,202a72.032,72.032,0,0,1-15.82-50.05,66.805,66.805,0,0,1,16.73-40.14c3.93-4.5,8.67-8.16,13.25-11.97,8.75-7.33,17.78-14.48,28.01-19.65,6.63-3.7,13.93-5.87,20.75-9.14-20.79,2.26-38.6,13.97-56.64,23.54C640.27,77.76,651.64,61.88,668.18,56.19Z" fill="#fff"/>
      <path id="Path_4" data-name="Path 4" d="M739.4,79.81c6.9,2.76,12.21,8.2,17.01,13.69,8.18,9.7,15.26,20.55,19.35,32.63a93.765,93.765,0,0,1-3.09,68.6c-12.28,28.17-38.89,49.24-68.84,55.65a99.334,99.334,0,0,1-57.94-6.33c-30.33-13.12-52.58-43.09-56.3-75.94a89.509,89.509,0,0,1,2.4-33.23c1.72-6.49,3.68-13.06,7.4-18.72-1.12,6.34-3.29,12.45-4.29,18.81a93.528,93.528,0,0,0,6.96,53.15,88.848,88.848,0,0,0,34.51,39.25,91.8,91.8,0,0,0,59.57,12.42c32.88-4.4,62.4-28.88,72.01-60.75,4.95-15.4,6.21-32.12,2.4-47.91-3.2-13.64-9.18-26.74-18.29-37.46C748.39,88.67,743.5,84.6,739.4,79.81Z" fill="#fff"/>
      <path id="Path_5" data-name="Path 5" d="M680.48,128.81c12.47-3.37,25.91,4.58,30.61,16.25a26.8,26.8,0,0,1-3.94,27.03c-7.64,9.55-22.04,13.29-33.11,7.77-13.31-6.6-18.94-24.83-11.89-37.85C665.8,135.05,672.97,130.56,680.48,128.81Z" fill="#fff"/>
      <g id="_fffff" data-name="#fffff">
        <path id="Path_18" data-name="Path 18" d="M670.54,20.15c23.28-.18,47.48.47,69.03,10.35,14.6,6.81,28.53,15.52,40.02,26.9a135.382,135.382,0,0,1,38.33,79.56c4.32,38.78-9.88,78.98-37.14,106.81a124.327,124.327,0,0,1-33.08,24.36c15.21-10.26,29.15-22.92,38.91-38.59,19.1-29.21,25.76-66.36,17.2-100.27a125.484,125.484,0,0,0-59.43-78.71c-22.12-12.55-48.06-17.9-73.37-15.97Q670.77,27.375,670.54,20.15Z" fill="#fff"/>
        <path id="Path_19" data-name="Path 19" d="M565.4,90.32c1.77-3.43,3.42-6.99,6.01-9.91,1.35,4.79,2.59,9.64,4.86,14.11,1.25,1.93-.39,3.96-1.11,5.75a123.925,123.925,0,0,0-14.52,57.72,125.42,125.42,0,0,0,33.98,86.36c6.14,6.71,13.69,11.88,20.48,17.88-12.44-6.72-22.97-16.56-32.31-27.07-20.22-24.17-32.1-55.5-31.66-87.11A130.465,130.465,0,0,1,565.4,90.32Z" fill="#fff"/>
        <path id="Path_22" data-name="Path 22" d="M651.8,295.82c26.04-3.8,52.1-7.63,78.29-10.23,1.33,2.16,3.11,4.65,2.05,7.31-.84,2.53-3.86,2.34-5.98,2.78-21.42,2.86-42.71,6.55-64.13,9.37-4.82.38-9.78,1.58-14.56.49a6.479,6.479,0,0,1-1.41-7.31C647.08,296.07,649.84,296.35,651.8,295.82Z" fill="#fff"/>
        <path id="Path_23" data-name="Path 23" d="M661.82,319.12c18.3-3.68,36.88-5.76,55.33-8.52,2.39-.19,5.45-1.26,7.28.92,1.16,1.2.57,3.01.69,4.5q-28.59,4.4-57.16,8.96c-1.77.2-3.88.69-5.31-.68C661.01,323.03,661.83,320.85,661.82,319.12Z" fill="#fff"/>
        <path id="Path_24" data-name="Path 24" d="M678.13,338.23c9.81-2.57,20.04-2.8,30.01-4.56,1.7-.19,3.51-.8,5.21-.19a20.647,20.647,0,0,1,1.07,3.67c-8.37,1.96-16.97,2.48-25.45,3.77-3.96.35-8.02,1.77-11.94.74C675.09,341.16,676.74,338.32,678.13,338.23Z" fill="#fff"/>
      </g>
    </g>
  </g>
</svg>
